1,1,33934358C,Jaume Simón Font,3,Formatges i  làctics ovella,QUOTIDIÀ ALIMENTARI,6631,"C/ Voltregà 11, 1r 1a ",8570,Torelló,630528839,info@formatgesdeciuret.cat,7/11/2014,7/11/2029
1,2,47847804F,Maria del Mar Macià Parris,3,Fruita i verdura ecològica,QUOTIDIÀ ALIMENTARI,6631,Casa La Teularia de Corcó s/n ,8560,Manlleu,657262669,info@hortviu.com,7/11/2014,7/11/2029
1,3,40333511K,Estefania Serrainat Ligero,3,"Llegums,arrossos,llavors,farines,espècies a granel ecològics...",QUOTIDIÀ ALIMENTARI,6631,"C/ Sta Maria,3",17832,Crespià,676049684 / 972597806,estefania.serrainat@gmail.com,3/16/2015,Fins nou concurs públic
1,4,B61535423,"Quimet Gall, S.L.",3,Fruita i verdura ecològica,QUOTIDIÀ ALIMENTARI,6631,Can Quimet Gall s/n ,8186,Llicà d'Amunt,652231289,quimetgall@hotmail.com,7/11/2014,7/11/2029
1,5,F65343287,Xarxa Integral de Professionals i Usuàries SCCL,3,Pa i pastisseria ecològica,QUOTIDIÀ ALIMENTARI,6631,C/ Vilaseca 29 ,8571,Sant Vicenç de Torelló,935216904,abubilla.bt@gmail.com,7/11/2014,7/11/2029
1,6,33951551D,Maria Llorens Campalans,3,Formatges i làctics cabra,QUOTIDIÀ ALIMENTARI,6631,"C/ del Ter 22, 3r,2a ",8560,Manlleu,699741803 María i Xevi / 669500693 Sergi,elserradetdebarneres@gmail.com,7/11/2014,7/11/2029
1,7,52149429B,Josep Casas Gera,12,Plantes i flors,EQUIP. DE LA LLAR,6639,"C. Ceràmica, 25, 1, 1",8530,La Garriga,659005657,,2/23/2010,10/6/2025
1,8,34742690V,Juan José Lizarte López,10,Fruita i verdura ,QUOTIDIÀ ALIMENTARI,6631,"C. Pau Abad, 11, 4t. 1a.",8207,Sabadell,637521881,,10/13/2014,10/6/2025
1,9,38815724G,Eduard Esobedo Casanovas,6,Plantes i flors,EQUIP. DE LA LLAR,6639,"C. Llevant, 6, 2n 2a.",17530,Campdevànol,615 89 67 39,eduardescobedo@terra.es,2/23/2010,10/6/2025
1,10,77102002E,Enrique Benavente Ortega,8,Fruita i verdura,QUOTIDIÀ ALIMENTARI,6631,"C. Mossèn Aulet, 7, 3r. 1a.",8560,Manlleu,620 67  25 64,,2/23/2010,10/6/2025
1,11,78021731G,Antonio Higueras Cordon,16,Fruita i verdura,QUOTIDIÀ ALIMENTARI,6631,"Camí de la Creu, 27, Baixos.",17530,Girona,972 73 08 58,,2/23/2010,10/6/2025
1,12,39382473X,Iván López Sánchez,8,"Olives, bacallà, embotit.",QUOTIDIÀ ALIMENTARI,6631,"Ctra. de Manresa 20, 2n 1a.",8274,Sant Feliu Sasserra,627256956,ivan-lopez@hotmail.es,7/11/2014,7/11/2029
1,13,38777567G,Juana Fernandez Cortes,9,"Fruits secs, carmels, dolços.",QUOTIDIÀ ALIMENTARI,6631,"C. Can Marquès, 2",8304,Mataró,93 740 74 50 / 626585036,miguel.marmolejo@hotmail.com,2/23/2010,10/6/2025
1,14,34748854V,Ismael Manuel Garcia Arribas,20,Fruita i verdura ,QUOTIDIÀ ALIMENTARI,6631,"C. Baltarga, 13, 1r 2a",8207,Sabadell,93 716 09 85 / 661 81 51 97,,2/23/2010,10/6/2025
1,15,24798439T,Miguel Blancas Fernandez,6,Quadres,EQUIP. DE LA LLAR,6199,"C. Canigó, 20 (Can Xicota)",8186,Lliçà d'Amunt,93 841 67 38 / 609 36 51 49,miguelblancasf@hotmail.com,2/23/2010,10/6/2025
1,16,J62509559,"Mari Carmen Navarro Pérez - Fruites i Verdures Navarro, SCP",8,Fruita i verdura ,QUOTIDIÀ ALIMENTARI,6631,"C. Barcelona, 3 ",8560,Manlleu,682516034 (Paqui) / 93 851 20 90,,2/23/2010,10/6/2025
1,17,B65258592,"Quilomar, S.L",12,Fruita i verdura ,QUOTIDIÀ ALIMENTARI,6631,"Av. Pau Casals, 8",8506,Calldetenes,619 31 65 75,,3/1/2011,10/6/2025
1,18,46533839D,Pedro A. Moren Martinez,6,Xurros,QUOTIDIÀ ALIMENTARI,6446,"Pg. Riu Congost 30, 9è,  2a.",8917,Badalona,637 84 55 51,,2/23/2010,10/6/2025
1,19,77897139A,Antonio Hoyo Rodriguez,6,Pollastres,QUOTIDIÀ ALIMENTARI,6639,"C. Menta, 47",8460,Santa Maria de Palautordera,616 43 21 89 / 616 43 21 84,rostisseriaxapro@gmail.com,2/23/2010,10/6/2025
1,20,37322696K,Antonio Alcaide Martinez,11,"Bacallà, olives i embotit.",QUOTIDIÀ ALIMENTARI,6631,"C. Voltregà, 176",8560,Manlleu,659 10 64 82,,2/23/2010,10/6/2025
1,21,36555284G,Margarita Martinez Guirado,12,Fruita i verdura ,QUOTIDIÀ ALIMENTARI,4721,"C. Sagrera, 26",8187,Santa Eulàlia de Ronçana,93 844 80 32 / 662 966 152,,2/23/2010,10/6/2025
1,22,47852721W,Sergio Pastor Montilla,12,Fruita i verdura,QUOTIDIÀ ALIMENTARI,4721,"C. Anna de Conanglell, 17",8508,Masies de Voltregà,677 88 89 84,,2/23/2010,10/6/2025
1,23,77083773D,"Josep Lladó i Vila (AGROPLANT LLADÓ TAPIA, SCP).",11,"Planter, fruita i verdura",QUOTIDIÀ ALIMENTARI,6639,"Disseminat Mas Lladó, ",8508,Santa Cecília de Voltregà,608 79 91 86,,2/23/2010,10/6/2025
1,24,52166667E,Luis Ridao Estrada,17,Fruita i verdura ,QUOTIDIÀ ALIMENTARI,6631,"C. de la Mercé, 15",8512,Sant Hipòlit de Voltregà,93 871 74 64 / 666 57 35 54,,1/17/2011,10/6/2025
1,25,X5826633C,El Bekkay Hakmaoui ,12,Fruita i verdura ,QUOTIDIÀ ALIMENTARI,6631,"C. Sant Ramon, 5, 1r. 1a.",43500,Tortosa,,,7/9/2014,10/6/2025
1,26,46730650D,Manuel Sanchez Jimenez,13,Roba de la llar,EQUIP. DE LA LLAR,6632,"C. Sant Joan, 144, Àtic 01",8150,Parets del Vallès,615999352,,2/23/2010,10/6/2025
1,27,35029727Z,Daniel Vila Muns,6,Tèxtil Sr/Sra.,EQUIP. DE LA PERSONA,6632,"C. Verge de Núria, 23",8550,Els Hostalets de Balenyà,93 882 05 04 / 628 262 879,,2/23/2010,10/6/2025
1,28,X4055102H,Abdelilah Benyahia,10,Calçat,EQUIP. DE LA PERSONA,6633,"Via Ausetània, 9, 3r 2a ",8560,Manlleu,693925029 / 602 67 42 43,,7/23/2013,10/6/2025
1,29,X0653021M,Youssef Dali,11,Tèxtil Sr/Sra.,EQUIP. DE LA PERSONA,6632,Disseminat Sala,8560,Manlleu,650 69 87 98 / 633 32 90 90,,1/14/2013,10/6/2025
1,30,33951028S,Marcos Laarbi Dominguez,8,Roba interior,EQUIP. DE LA PERSONA,6632,"C. del Puig, 76, 2n 2a",8512,Sant Hipòlit de Voltregà,696 04 09 49,,2/23/2010,10/6/2025
1,31,77282896K,Ramon Mariano Zamora Expósito,10,Tèxtil Sr/Sra.,EQUIP. DE LA PERSONA,6632,"C. Puigdetarrades, 32",8570,Torelló,616 92 39 79,,2/23/2010,10/6/2025
1,32,33945371Q,Eva Encarnación Gonzalez Cobo,12,Roba interior,EQUIP. DE LA PERSONA,6632,"Pl. Osona 20, 2º 2ª ",8500,Vic,93 885 41 67/EVA 627270757,,2/1/2011,10/6/2025
1,33,33943118V,Feliciana Pérez Ramirez,8,Tèxtil Sr. ,EQUIP. DE LA PERSONA,6632,"Rambla Josep Tarradellas 10, 3r.  1a",8500,Vic,,,3/5/2013,10/6/2025
1,34,77284582M,Ana Maria Delgado verdaguer,8,Roba de la llar,EQUIP. DE LA LLAR,6632,"Av. Gaudí, 35",8512,Sant Hipòlit de Voltregà,93 850 21 40,,2/23/2010,10/6/2025
1,35,77311926W,David Escarrà Riera,6,Tèxtil Sr/Sra.,EQUIP. DE LA PERSONA,6512,"C. Esquirol, 10",8560,Manlleu,628 15 61 35,la_baldufa@hotmail.com,2/9/2012,10/6/2025
1,36,05974483A,Rahman Rahman MD MASUD,6,Textil Sr/Sra.,EQUIP. DE LA PERSONA,6632,"C. Pirineus, 85, S04 4 IZQ.",8923,Santa Coloma de Gramanet,,,11/21/2012,10/6/2025
1,37,77086260N,Xavier Riubugent Alvarez. ,9,Tèxtil infantil,EQUIP. DE LA PERSONA,6632,"C. Voltregà, 2",8570,Torelló,616 92 39 80,,2/23/2010,10/6/2025
1,38,77062272J,Joan Vila Vilar,8,Tèxtil Sr. ,EQUIP. DE LA PERSONA,6632,"C. Major, 65",8550,Els Hostalets de Balenyà,,,2/23/2010,10/6/2025
1,39,33940611V,Claudia Carmona Bautista,8,Tèxtil Sr/Sra.,EQUIP. DE LA PERSONA,6632,"Ctra. de Roda, 35",8560,Manlleu,93 850 65 47 - 649 30 51 94,,2/23/2010,10/6/2025
1,40,Y3474743L,Nurum Nabi Mukul,8,Tèxtil,EQUIP. DE LA PERSONA,6632,"C. Democracia, 32-34, Bxs 2",8914,Badalona,632 67 74 74 / 632 67 74 79,,10/1/2014,10/6/2025
1,41,X1361386Q,Lahbib Maimouni,8,Tèxtil Sr/Sra.,EQUIP. DE LA PERSONA,6632,"C. del Castell, 1",8589,Santa Maria de Besora,649593717,,2/23/2010,10/6/2025
1,42,X2155104G,Jalal el Gharibi,8,Roba infantil,EQUIP. DE LA PERSONA,6512,C/ Via Ausetània 9 4rt 1a.,8560,Manlleu,631 579 958 /686 53 08 95 (Ahmed El Gharibi El Amraqui),,3/1/2015,10/6/2025
1,43,X3170900M,Malak Singh,8,Tèxtil Sr/Sra.,EQUIP. DE LA PERSONA,6632,"C. Raimon d'Abadal, 30, 1r 2a.",8500,Vic,651 08 22 54 - 622 75 26 30,jonysingh45@hotmail.com,2/23/2010,10/6/2025
1,44,77290483H,M. Roser Pou Sañé,8,Roba interior,EQUIP. DE LA PERSONA,6632,"C. Sant Miquel, 48",8852,Taradell,93 880 03 39,,2/23/2010,10/6/2025
1,45,33938491J,Enric Miguel Zamora Exposito,10,Tèxtil Sr/Sra.,EQUIP. DE LA PERSONA,6632,"Av. Rosselló, 1",8570,Torelló,607 80 22 16,,2/23/2010,10/6/2025
1,46,77101727T,Josep Rovira Pares,9,Tèxtil Sr. ,EQUIP. DE LA PERSONA,6632,"C. Escoles, 9",8507,Santa Eugènia de Berga,655 81 10 33,,2/23/2010,10/6/2025
1,47,39305234M,Josep Juncà Capdevila,6,Bolsos i complements.,EQUIP. DE LA PERSONA,6639,"C. Santiago Russinyol, 11, 2n 1a",8274,Sant Feliu Sasserra,93 881 91 15,josepjunca@yahoo.es mcasasteixidor@gmail.com,2/23/2010,10/6/2025
1,48,77311874L,M. Teresa Pou Sañé,8,Roba interior,EQUIP. DE LA PERSONA,6632,"C. Guillem de Montrodon, 19",8552,Taradell,649 67 72 89,tessaplus@hotmail.com,2/23/2010,10/6/2025
1,49,X0602718A,Mohamed Acheari,6,Bazar,EQUIP. DE LA LLAR,6639,"Pg. Sant Joan, 89 ",8560,Manlleu,93 850 75 30 / 602 83 30 22,khadijacheari@gmail.com,2/23/2010,10/6/2025
1,50,77303817N,Rosa Coromina Famada,6,Textil Sra.,EQUIP. DE LA PERSONA,6632,"C. Era d'en Carbó, 24",8560,Manlleu,93 851 42 47 / 659 96 94 78,rosacoromina@hotmail.es,7/11/2014,7/11/2029
1,51,47155945B,Pablo Montero Fernàndez,9,Roba interior,EQUIP. DE LA PERSONA,6632,"C. Begoña Bloque 56, baixos",8202,Sabadell,628466209,,1/1/2015,10/6/2025
1,52,47865320C ,Laia Balibrea Guardiola ,8,Tèxtil Sr/Sra.,EQUIP. DE LA PERSONA,6632,"C. Antoni Gaudí, 23, 2n.",8540,Centelles,646 95 58 10,,11/17/2014,10/6/2025
1,53,33953661A,Xavier Garcia Ayats,6,Tèxtil Sr. ,EQUIP. DE LA PERSONA,6632,"C. De la Pau, 18",8570,Torelló,660 05 31 71,xegaya@hotmail.com,1/7/2014,10/6/2025
1,54,38829612T,Mireia Rojas Martinez,7,Roba interior,EQUIP. DE LA PERSONA,6632,"C. Riera Pare Fita 111-113, B P01 3",8350,Arenys de Mar,,,2/23/2010,10/6/2025
1,55,35068454D,Juan Luis Lopez Gualda,8,Roba llar,EQUIP. DE LA LLAR,6632,"C. Tudo, 31",8187,Santa Eulàlia de Ronçana,93 844 80 39,,2/23/2010,10/6/2025
1,56,43514936V,Eva Serra Ricart,6,Tèxtil Sr/Sra.,EQUIP. DE LA PERSONA,6632,"C. Cireres, 12",8430,La Roca del Vallès,696246370 / 687 60 32 34,evaserra71@gmail.com,2/23/2010,10/6/2025
1,57,X6425466W,Bokhtiar Rahman,4,Roba interior,EQUIP. DE LA PERSONA,6632,"C. Sicília, 69",8917,Badalona,,,6/27/2013,10/6/2025
1,58,24122350L,Isabel Ruiz Iglesias ,9,Tèxtil Sr/Sra.,EQUIP. DE LA PERSONA,6632,"C. Sant Miquel de la Guardia, 21",8560,Manlleu,691 34 82 29,,2/23/2010,10/6/2025
1,59,33953539L,Inmaculada Palomar Tejero,7,Roba interior,EQUIP. DE LA PERSONA,6632,"C. Doctor Fleming, 16, 1r. A.",8560,Manlleu,93 851 15 53 - 647 83 04 50,immapalomar@gmail.com,2/23/2010,10/6/2025
1,60,X5628996E ,Fouzia Bounaanaa ,9,Tèxtil Sr/Sra.,EQUIP. DE LA PERSONA,6632,"C. Bellfort, 94, 3r 2a",8560,Manlleu,,,12/1/2014,10/6/2025
1,61,33941379A,Jose Antonio Ortiz Jimenez,8,Calçat,EQUIP. DE LA PERSONA,6633,"C. Ausias March, 1",8500,Vic,616 41 32 32,,2/23/2010,10/6/2025
1,62,77285156G,Josep M. Colom Tornés,14,Parament Llar,EQUIP. DE LA LLAR,6639,"Pl. de la Pietat, 5, 3r. 1a.",8500,Vic,689 75 96 52,jcolomvic@gmail.com,2/23/2010,10/6/2025
1,63,X4871568F,Sakina Ed Bensaria Guilli,8,Tèxtil Sr/Sra.,EQUIP. DE LA PERSONA,6632,"C. Pintor Guàrdia, 3, 10",8560,Manlleu,609 147 093,,2/7/2011,10/6/2025
1,64,47848289D,Radia L'Kima Sbai,8,Bazar,EQUIP. DE LA LLAR,6639,"C. Amistat, 2, 2n.",8560,Manlleu,629 13 66 50,,2/23/2010,10/6/2025
1,65,X3202572Y,Hicham Mimouni,6,Tèxtil infantil,EQUIP. DE LA PERSONA,6632,"Ctra. d'Olot, 52, 3r. 4a.",8560,Manlleu,632 33 94 31,,12/3/2013,10/6/2025
1,66,X3560850J,Souad El Amouri,8,Tèxtil Sr/Sra.,EQUIP. DE LA PERSONA,6632,"C. dels Pins, 31",8570,Torelló,646 14 99 40,,2/23/2010,10/6/2025
1,67,33936812J,Rosa Maria Baucells Ferrer,5,Tèxtil infantil,EQUIP. DE LA PERSONA,6632,"C. Montseny, 31",8560,Manlleu,93 851 02 64,,10/1/2013,10/6/2025
1,68,77092287J,Martí Marti Espona,9,Calçat,EQUIP. DE LA PERSONA,6633,"Av. de Roma, 246",8560,Manlleu,93 851 40 24,,2/23/2010,10/6/2025
1,69,33932206F,Ramon Rebellon Baranera,5,Tèxtil Sr. ,EQUIP. DE LA PERSONA,6632,"C. Verdaguer, 114, B",8550,Els Hostalets de Balenyà,600 68 05 00,,2/23/2010,10/6/2025
1,70,77285569A,Mari Carmen manzano Font,8,Perfumeria,QUOTIDIÀ NO ALIMENTARI,6634,"C. Fonts,  5 ",17251,Calonge,93 886 01 26 / 699 08 28 99,,2/23/2010,10/6/2025
1,71,49363084R ,Mbaye Dieng,5,Bazar,EQUIP. DE LA PERSONA,6639,"C. Poniente, 53, 2n 2a",8400,Granollers,93 849 06 84 / 664 50 98 33,,2/23/2010,10/6/2025
1,72,77115131H,Anna Sala Escarrabill ,5,Textil Infantil,EQUIP. DE LA PERSONA,6632,"C. Montseny, 5",8519,Folgueroles,691 09 40 76 / 93 812 25 01,escarrabill@gmail.com,2/23/2010,10/6/2025
1,73,X2155090J,Loubna El Gharibi,7,Tèxtil Sr/Sra.,EQUIP. DE LA PERSONA,6632,"Via Ausetània, 7, 2n 2a ",8560,Manlleu,,,2/23/2010,10/6/2025
1,74,X5207562V,Hamid Bousfia,10,Calçat,EQUIP. DE LA PERSONA,6633,"C. Arnald de Corcó, 34",8560,Manlleu,679 26 43 60,,2/23/2010,10/6/2025
1,75,X5192716Y,S.M. Rubel Hossan,8,Tèxtil Sr/Sra.,EQUIP. DE LA PERSONA,6632,"C. Democràcia 32-34, Pbaixa Exterior 2",8914,Badalona,632 38 18 41,,1/16/2013,10/6/2025
1,76,33938026P,Marti Coma Miró,10,Roba interior,EQUIP. DE LA PERSONA,6639,"C. Puig Guardial, 140",8560,Manlleu,93 850 79 85 - 610 94 10 81,,2/23/2010,10/6/2025
